testbench/log/matrix.log
./obj_dir/Vtb_top 

VerilatorTB: Start of sim

Initialized list:
[0,8080][1,6464][2,5l5l][3,5252][4,4949][5,4040][6,3p3p][7,3636][8,2n2n][p,7676][17,3636][1p,7676][27,3636][110,6n6n][118,2n2n][120,6n6n][128,2n2n][209,2424][211,6464][219,2424][221,6464][229,2424][30k,1l1l][312,5l5l][31k,1l1l][322,5l5l][32k,1l1l][40l,1212][413,5252][41l,1212][423,5252][42l,1212][50m,909][514,4949][51m,909][524,4949][52m,909][60n,0][615,4040][61n,0][625,4040][62n,0][70o,7p7p][716,3p3p][71o,7p7p][726,3p3p][7ppp,pppp]
Matrix A [11x11]:
3,6,12,32,130,220,190,144,146,20,22
24,26,28,30,32,34,36,38,40,42,44
46,48,50,52,54,56,58,60,62,64,66
68,70,72,74,76,78,80,82,84,86,88
90,92,94,96,98,100,102,104,106,108,110
112,114,116,118,120,122,124,126,128,130,132
134,136,138,140,142,144,146,148,150,152,154
156,158,160,162,164,166,168,170,172,174,176
178,180,182,184,186,188,190,192,194,196,198
200,202,204,206,208,210,212,214,216,218,220
222,224,226,228,230,232,234,236,238,240,242
Matrix B [11x11]:
2,4,9,28,125,726,5047,-25208,-30327,24330,5387
-1012,-13299,10254,22543,-32752,-32751,18,19,20,21,22
23,24,25,26,27,28,29,30,31,32,33
34,35,36,37,38,39,40,41,42,43,44
45,46,47,48,49,50,51,52,53,54,55
56,57,58,59,60,61,62,63,64,65,66
67,68,69,70,71,72,73,74,75,76,77
78,79,80,81,82,83,84,85,86,87,88
89,90,91,92,93,94,95,96,97,98,99
100,101,102,103,104,105,106,107,108,109,110
111,112,113,114,115,116,117,118,119,120,121
Matrix matrix_add_const [11x11]:
156,159,165,185,283,373,343,297,299,173,175
177,179,181,183,185,187,189,191,193,195,197
199,201,203,205,207,209,211,213,215,217,219
221,223,225,227,229,231,233,235,237,239,241
243,245,247,249,251,253,255,257,259,261,263
265,267,269,271,273,275,277,279,281,283,285
287,289,291,293,295,297,299,301,303,305,307
309,311,313,315,317,319,321,323,325,327,329
331,333,335,337,339,341,343,345,347,349,351
353,355,357,359,361,363,365,367,369,371,373
375,377,379,381,383,385,387,389,391,393,395
Matrix matrix_mul_const [11x11]:
23868,24327,25245,28305,43299,57069,52479,45441,45747,26469,26775
27081,27387,27693,27999,28305,28611,28917,29223,29529,29835,30141
30447,30753,31059,31365,31671,31977,32283,32589,32895,33201,33507
33813,34119,34425,34731,35037,35343,35649,35955,36261,36567,36873
37179,37485,37791,38097,38403,38709,39015,39321,39627,39933,40239
40545,40851,41157,41463,41769,42075,42381,42687,42993,43299,43605
43911,44217,44523,44829,45135,45441,45747,46053,46359,46665,46971
47277,47583,47889,48195,48501,48807,49113,49419,49725,50031,50337
50643,50949,51255,51561,51867,52173,52479,52785,53091,53397,53703
54009,54315,54621,54927,55233,55539,55845,56151,56457,56763,57069
57375,57681,57987,58293,58599,58905,59211,59517,59823,60129,60435
Matrix matrix_mul_vect [11x11]:
-9357827,-3741657,-4178951,-4616245,-5053539,-5490833,-5928127,-6365421,-6802715,-7240009,-7677303
27081,27387,27693,27999,28305,28611,28917,29223,29529,29835,30141
30447,30753,31059,31365,31671,31977,32283,32589,32895,33201,33507
33813,34119,34425,34731,35037,35343,35649,35955,36261,36567,36873
37179,37485,37791,38097,38403,38709,39015,39321,39627,39933,40239
40545,40851,41157,41463,41769,42075,42381,42687,42993,43299,43605
43911,44217,44523,44829,45135,45441,45747,46053,46359,46665,46971
47277,47583,47889,48195,48501,48807,49113,49419,49725,50031,50337
50643,50949,51255,51561,51867,52173,52479,52785,53091,53397,53703
54009,54315,54621,54927,55233,55539,55845,56151,56457,56763,57069
57375,57681,57987,58293,58599,58905,59211,59517,59823,60129,60435
Matrix matrix_mul_matrix [11x11]:
-7405,-1958433,1789567,3748775,-5025705,-4929497,957143,-3760185,-4556297,3972647,1019991
-65507,-2262825,1955748,4160543,-5718392,-5610135,1022034,-4331221,-5235404,4440765,1089734
-74461,-2541851,2195196,4670965,-6422128,-6300429,1147918,-4870727,-5887308,4991535,1223978
-83415,-2820877,2434644,5181387,-7125864,-6990723,1273802,-5410233,-6539212,5542305,1358222
-92369,-3099903,2674092,5691809,-7829600,-7681017,1399686,-5949739,-7191116,6093075,1492466
-101323,-3378929,2913540,6202231,-8533336,-8371311,1525570,-6489245,-7843020,6643845,1626710
-110277,-3657955,3152988,6712653,-9237072,-9061605,1651454,-7028751,-8494924,7194615,1760954
-119231,-3936981,3392436,7223075,-9940808,-9751899,1777338,-7568257,-9146828,7745385,1895198
-128185,-4216007,3631884,7733497,-10644544,-10442193,1903222,-8107763,-9798732,8296155,2029442
-137139,-4495033,3871332,8243919,-11348280,-11132487,2029106,-8647269,-10450636,8846925,2163686
-146093,-4774059,4110780,8754341,-12052016,-11822781,2154990,-9186775,-11102540,9397695,2297930
Matrix matrix_mul_matrix_bitextract [11x11]:
5299,5043,4952,6560,7984,4170,7233,4170,6172,5809,3872
4647,4629,6412,6446,7919,6646,3917,4019,4637,7476,6419
7537,3319,4904,2885,4730,6413,5237,6214,4887,5014,7654
6883,4572,6950,5814,4657,5396,7964,4191,5243,5340,3810
4120,4381,3866,3741,3957,3452,5032,5481,4641,5576,4792
5935,6018,3592,7642,3282,4836,5967,3867,5899,3623,6796
4412,4759,4820,8100,7259,4926,2616,7359,3353,6946,4416
5521,4102,3108,3580,3280,5853,5306,4831,4003,5175,3975
4624,9342,7989,5453,4558,5517,2631,3386,3078,3148,6606
5428,1051,3719,2452,3975,5131,7513,5412,7638,8128,6713
3181,4346,6064,5614,5755,6103,5229,6079,4479,6877,3628
State Bench: 0,0,136,pnkk
1,1,1,
1,1,1,
Matrix matrix_add_const [11x11]:
20,23,29,49,147,237,207,161,163,37,39
41,43,45,47,49,51,53,55,57,59,61
63,65,67,69,71,73,75,77,79,81,83
85,87,89,91,93,95,97,99,101,103,105
107,109,111,113,115,117,119,121,123,125,127
129,131,133,135,137,139,141,143,145,147,149
151,153,155,157,159,161,163,165,167,169,171
173,175,177,179,181,183,185,187,189,191,193
195,197,199,201,203,205,207,209,211,213,215
217,219,221,223,225,227,229,231,233,235,237
239,241,243,245,247,249,251,253,255,257,259
Matrix matrix_mul_const [11x11]:
340,391,493,833,2499,4029,3519,2737,2771,629,663
697,731,765,799,833,867,901,935,969,1003,1037
1071,1105,1139,1173,1207,1241,1275,1309,1343,1377,1411
1445,1479,1513,1547,1581,1615,1649,1683,1717,1751,1785
1819,1853,1887,1921,1955,1989,2023,2057,2091,2125,2159
2193,2227,2261,2295,2329,2363,2397,2431,2465,2499,2533
2567,2601,2635,2669,2703,2737,2771,2805,2839,2873,2907
2941,2975,3009,3043,3077,3111,3145,3179,3213,3247,3281
3315,3349,3383,3417,3451,3485,3519,3553,3587,3621,3655
3689,3723,3757,3791,3825,3859,3893,3927,3961,3995,4029
4063,4097,4131,4165,4199,4233,4267,4301,4335,4369,4403
Matrix matrix_mul_vect [11x11]:
-6654555,-1038385,-1475679,-1912973,-2350267,-2787561,-3224855,-3662149,-4099443,-4536737,-4974031
697,731,765,799,833,867,901,935,969,1003,1037
1071,1105,1139,1173,1207,1241,1275,1309,1343,1377,1411
1445,1479,1513,1547,1581,1615,1649,1683,1717,1751,1785
1819,1853,1887,1921,1955,1989,2023,2057,2091,2125,2159
2193,2227,2261,2295,2329,2363,2397,2431,2465,2499,2533
2567,2601,2635,2669,2703,2737,2771,2805,2839,2873,2907
2941,2975,3009,3043,3077,3111,3145,3179,3213,3247,3281
3315,3349,3383,3417,3451,3485,3519,3553,3587,3621,3655
3689,3723,3757,3791,3825,3859,3893,3927,3961,3995,4029
4063,4097,4131,4165,4199,4233,4267,4301,4335,4369,4403
Matrix matrix_mul_matrix [11x11]:
47947,-233545,309343,593439,-675337,-662225,178951,-425057,-526345,567887,190119
-10155,-537937,475524,1005207,-1368024,-1342863,243842,-996093,-1205452,1036005,259862
-19109,-816963,714972,1515629,-2071760,-2033157,369726,-1535599,-1857356,1586775,394106
-28063,-1095989,954420,2026051,-2775496,-2723451,495610,-2075105,-2509260,2137545,528350
-37017,-1375015,1193868,2536473,-3479232,-3413745,621494,-2614611,-3161164,2688315,662594
-45971,-1654041,1433316,3046895,-4182968,-4104039,747378,-3154117,-3813068,3239085,796838
-54925,-1933067,1672764,3557317,-4886704,-4794333,873262,-3693623,-4464972,3789855,931082
-63879,-2212093,1912212,4067739,-5590440,-5484627,999146,-4233129,-5116876,4340625,1065326
-72833,-2491119,2151660,4578161,-6294176,-6174921,1125030,-4772635,-5768780,4891395,1199570
-81787,-2770145,2391108,5088583,-6997912,-6865215,1250914,-5312141,-6420684,5442165,1333814
-90741,-3049171,2630556,5599005,-7701648,-7555509,1376798,-5851647,-7072588,5992935,1468058
Matrix matrix_mul_matrix_bitextract [11x11]:
3718,4134,5531,4062,3567,7839,4186,6496,5109,5684,4832
4275,4157,3937,5891,7114,5648,4152,4095,4761,6424,4639
8119,3618,3281,4373,4333,3102,3319,4493,6181,6653,5465
4864,5048,4819,4064,5738,4804,6585,4750,5043,4155,7032
3686,5776,5016,5145,4298,7000,5884,3851,3780,6274,5429
5262,7268,7292,5947,6523,4173,6750,6542,3560,4367,5264
5166,3707,6289,5549,6889,7101,7736,5819,4495,5262,5473
5258,5368,4649,4587,5639,4808,4997,6901,5577,6133,5305
6851,5300,3664,6443,5483,5122,4620,5116,5813,3819,3018
3251,6924,6257,4946,7761,4856,4294,6772,3399,7592,4685
3752,4982,5498,4944,4480,3389,3439,5450,5219,6656,6113
Matrix matrix_add_const [11x11]:
156,159,165,185,283,373,343,297,299,173,175
177,179,181,183,185,187,189,191,193,195,197
199,201,203,205,207,209,211,213,215,217,219
221,223,225,227,229,231,233,235,237,239,241
243,245,247,249,251,253,255,257,259,261,263
265,267,269,271,273,275,277,279,281,283,285
287,289,291,293,295,297,299,301,303,305,307
309,311,313,315,317,319,321,323,325,327,329
331,333,335,337,339,341,343,345,347,349,351
353,355,357,359,361,363,365,367,369,371,373
375,377,379,381,383,385,387,389,391,393,395
Matrix matrix_mul_const [11x11]:
23868,24327,25245,28305,43299,57069,52479,45441,45747,26469,26775
27081,27387,27693,27999,28305,28611,28917,29223,29529,29835,30141
30447,30753,31059,31365,31671,31977,32283,32589,32895,33201,33507
33813,34119,34425,34731,35037,35343,35649,35955,36261,36567,36873
37179,37485,37791,38097,38403,38709,39015,39321,39627,39933,40239
40545,40851,41157,41463,41769,42075,42381,42687,42993,43299,43605
43911,44217,44523,44829,45135,45441,45747,46053,46359,46665,46971
47277,47583,47889,48195,48501,48807,49113,49419,49725,50031,50337
50643,50949,51255,51561,51867,52173,52479,52785,53091,53397,53703
54009,54315,54621,54927,55233,55539,55845,56151,56457,56763,57069
57375,57681,57987,58293,58599,58905,59211,59517,59823,60129,60435
Matrix matrix_mul_vect [11x11]:
-9357827,-3741657,-4178951,-4616245,-5053539,-5490833,-5928127,-6365421,-6802715,-7240009,-7677303
27081,27387,27693,27999,28305,28611,28917,29223,29529,29835,30141
30447,30753,31059,31365,31671,31977,32283,32589,32895,33201,33507
33813,34119,34425,34731,35037,35343,35649,35955,36261,36567,36873
37179,37485,37791,38097,38403,38709,39015,39321,39627,39933,40239
40545,40851,41157,41463,41769,42075,42381,42687,42993,43299,43605
43911,44217,44523,44829,45135,45441,45747,46053,46359,46665,46971
47277,47583,47889,48195,48501,48807,49113,49419,49725,50031,50337
50643,50949,51255,51561,51867,52173,52479,52785,53091,53397,53703
54009,54315,54621,54927,55233,55539,55845,56151,56457,56763,57069
57375,57681,57987,58293,58599,58905,59211,59517,59823,60129,60435
Matrix matrix_mul_matrix [11x11]:
-7405,-1958433,1789567,3748775,-5025705,-4929497,957143,-3760185,-4556297,3972647,1019991
-65507,-2262825,1955748,4160543,-5718392,-5610135,1022034,-4331221,-5235404,4440765,1089734
-74461,-2541851,2195196,4670965,-6422128,-6300429,1147918,-4870727,-5887308,4991535,1223978
-83415,-2820877,2434644,5181387,-7125864,-6990723,1273802,-5410233,-6539212,5542305,1358222
-92369,-3099903,2674092,5691809,-7829600,-7681017,1399686,-5949739,-7191116,6093075,1492466
-101323,-3378929,2913540,6202231,-8533336,-8371311,1525570,-6489245,-7843020,6643845,1626710
-110277,-3657955,3152988,6712653,-9237072,-9061605,1651454,-7028751,-8494924,7194615,1760954
-119231,-3936981,3392436,7223075,-9940808,-9751899,1777338,-7568257,-9146828,7745385,1895198
-128185,-4216007,3631884,7733497,-10644544,-10442193,1903222,-8107763,-9798732,8296155,2029442
-137139,-4495033,3871332,8243919,-11348280,-11132487,2029106,-8647269,-10450636,8846925,2163686
-146093,-4774059,4110780,8754341,-12052016,-11822781,2154990,-9186775,-11102540,9397695,2297930
Matrix matrix_mul_matrix_bitextract [11x11]:
5299,5043,4952,6560,7984,4170,7233,4170,6172,5809,3872
4647,4629,6412,6446,7919,6646,3917,4019,4637,7476,6419
7537,3319,4904,2885,4730,6413,5237,6214,4887,5014,7654
6883,4572,6950,5814,4657,5396,7964,4191,5243,5340,3810
4120,4381,3866,3741,3957,3452,5032,5481,4641,5576,4792
5935,6018,3592,7642,3282,4836,5967,3867,5899,3623,6796
4412,4759,4820,8100,7259,4926,2616,7359,3353,6946,4416
5521,4102,3108,3580,3280,5853,5306,4831,4003,5175,3975
4624,9342,7989,5453,4558,5517,2631,3386,3078,3148,6606
5428,1051,3719,2452,3975,5131,7513,5412,7638,8128,6713
3181,4346,6064,5614,5755,6103,5229,6079,4479,6877,3628
Matrix matrix_add_const [11x11]:
20,23,29,49,147,237,207,161,163,37,39
41,43,45,47,49,51,53,55,57,59,61
63,65,67,69,71,73,75,77,79,81,83
85,87,89,91,93,95,97,99,101,103,105
107,109,111,113,115,117,119,121,123,125,127
129,131,133,135,137,139,141,143,145,147,149
151,153,155,157,159,161,163,165,167,169,171
173,175,177,179,181,183,185,187,189,191,193
195,197,199,201,203,205,207,209,211,213,215
217,219,221,223,225,227,229,231,233,235,237
239,241,243,245,247,249,251,253,255,257,259
Matrix matrix_mul_const [11x11]:
340,391,493,833,2499,4029,3519,2737,2771,629,663
697,731,765,799,833,867,901,935,969,1003,1037
1071,1105,1139,1173,1207,1241,1275,1309,1343,1377,1411
1445,1479,1513,1547,1581,1615,1649,1683,1717,1751,1785
1819,1853,1887,1921,1955,1989,2023,2057,2091,2125,2159
2193,2227,2261,2295,2329,2363,2397,2431,2465,2499,2533
2567,2601,2635,2669,2703,2737,2771,2805,2839,2873,2907
2941,2975,3009,3043,3077,3111,3145,3179,3213,3247,3281
3315,3349,3383,3417,3451,3485,3519,3553,3587,3621,3655
3689,3723,3757,3791,3825,3859,3893,3927,3961,3995,4029
4063,4097,4131,4165,4199,4233,4267,4301,4335,4369,4403
Matrix matrix_mul_vect [11x11]:
-6654555,-1038385,-1475679,-1912973,-2350267,-2787561,-3224855,-3662149,-4099443,-4536737,-4974031
697,731,765,799,833,867,901,935,969,1003,1037
1071,1105,1139,1173,1207,1241,1275,1309,1343,1377,1411
1445,1479,1513,1547,1581,1615,1649,1683,1717,1751,1785
1819,1853,1887,1921,1955,1989,2023,2057,2091,2125,2159
2193,2227,2261,2295,2329,2363,2397,2431,2465,2499,2533
2567,2601,2635,2669,2703,2737,2771,2805,2839,2873,2907
2941,2975,3009,3043,3077,3111,3145,3179,3213,3247,3281
3315,3349,3383,3417,3451,3485,3519,3553,3587,3621,3655
3689,3723,3757,3791,3825,3859,3893,3927,3961,3995,4029
4063,4097,4131,4165,4199,4233,4267,4301,4335,4369,4403
Matrix matrix_mul_matrix [11x11]:
47947,-233545,309343,593439,-675337,-662225,178951,-425057,-526345,567887,190119
-10155,-537937,475524,1005207,-1368024,-1342863,243842,-996093,-1205452,1036005,259862
-19109,-816963,714972,1515629,-2071760,-2033157,369726,-1535599,-1857356,1586775,394106
-28063,-1095989,954420,2026051,-2775496,-2723451,495610,-2075105,-2509260,2137545,528350
-37017,-1375015,1193868,2536473,-3479232,-3413745,621494,-2614611,-3161164,2688315,662594
-45971,-1654041,1433316,3046895,-4182968,-4104039,747378,-3154117,-3813068,3239085,796838
-54925,-1933067,1672764,3557317,-4886704,-4794333,873262,-3693623,-4464972,3789855,931082
-63879,-2212093,1912212,4067739,-5590440,-5484627,999146,-4233129,-5116876,4340625,1065326
-72833,-2491119,2151660,4578161,-6294176,-6174921,1125030,-4772635,-5768780,4891395,1199570
-81787,-2770145,2391108,5088583,-6997912,-6865215,1250914,-5312141,-6420684,5442165,1333814
-90741,-3049171,2630556,5599005,-7701648,-7555509,1376798,-5851647,-7072588,5992935,1468058
Matrix matrix_mul_matrix_bitextract [11x11]:
3718,4134,5531,4062,3567,7839,4186,6496,5109,5684,4832
4275,4157,3937,5891,7114,5648,4152,4095,4761,6424,4639
8119,3618,3281,4373,4333,3102,3319,4493,6181,6653,5465
4864,5048,4819,4064,5738,4804,6585,4750,5043,4155,7032
3686,5776,5016,5145,4298,7000,5884,3851,3780,6274,5429
5262,7268,7292,5947,6523,4173,6750,6542,3560,4367,5264
5166,3707,6289,5549,6889,7101,7736,5819,4495,5262,5473
5258,5368,4649,4587,5639,4808,4997,6901,5577,6133,5305
6851,5300,3664,6443,5483,5122,4620,5116,5813,3819,3018
3251,6924,6257,4946,7761,4856,4294,6772,3399,7592,4685
3752,4982,5498,4944,4480,3389,3439,5450,5219,6656,6113
Matrix matrix_add_const [11x11]:
156,159,165,185,283,373,343,297,299,173,175
177,179,181,183,185,187,189,191,193,195,197
199,201,203,205,207,209,211,213,215,217,219
221,223,225,227,229,231,233,235,237,239,241
243,245,247,249,251,253,255,257,259,261,263
265,267,269,271,273,275,277,279,281,283,285
287,289,291,293,295,297,299,301,303,305,307
309,311,313,315,317,319,321,323,325,327,329
331,333,335,337,339,341,343,345,347,349,351
353,355,357,359,361,363,365,367,369,371,373
375,377,379,381,383,385,387,389,391,393,395
Matrix matrix_mul_const [11x11]:
23868,24327,25245,28305,43299,57069,52479,45441,45747,26469,26775
27081,27387,27693,27999,28305,28611,28917,29223,29529,29835,30141
30447,30753,31059,31365,31671,31977,32283,32589,32895,33201,33507
33813,34119,34425,34731,35037,35343,35649,35955,36261,36567,36873
37179,37485,37791,38097,38403,38709,39015,39321,39627,39933,40239
40545,40851,41157,41463,41769,42075,42381,42687,42993,43299,43605
43911,44217,44523,44829,45135,45441,45747,46053,46359,46665,46971
47277,47583,47889,48195,48501,48807,49113,49419,49725,50031,50337
50643,50949,51255,51561,51867,52173,52479,52785,53091,53397,53703
54009,54315,54621,54927,55233,55539,55845,56151,56457,56763,57069
57375,57681,57987,58293,58599,58905,59211,59517,59823,60129,60435
Matrix matrix_mul_vect [11x11]:
-9357827,-3741657,-4178951,-4616245,-5053539,-5490833,-5928127,-6365421,-6802715,-7240009,-7677303
27081,27387,27693,27999,28305,28611,28917,29223,29529,29835,30141
30447,30753,31059,31365,31671,31977,32283,32589,32895,33201,33507
33813,34119,34425,34731,35037,35343,35649,35955,36261,36567,36873
37179,37485,37791,38097,38403,38709,39015,39321,39627,39933,40239
40545,40851,41157,41463,41769,42075,42381,42687,42993,43299,43605
43911,44217,44523,44829,45135,45441,45747,46053,46359,46665,46971
47277,47583,47889,48195,48501,48807,49113,49419,49725,50031,50337
50643,50949,51255,51561,51867,52173,52479,52785,53091,53397,53703
54009,54315,54621,54927,55233,55539,55845,56151,56457,56763,57069
57375,57681,57987,58293,58599,58905,59211,59517,59823,60129,60435
Matrix matrix_mul_matrix [11x11]:
-7405,-1958433,1789567,3748775,-5025705,-4929497,957143,-3760185,-4556297,3972647,1019991
-65507,-2262825,1955748,4160543,-5718392,-5610135,1022034,-4331221,-5235404,4440765,1089734
-74461,-2541851,2195196,4670965,-6422128,-6300429,1147918,-4870727,-5887308,4991535,1223978
-83415,-2820877,2434644,5181387,-7125864,-6990723,1273802,-5410233,-6539212,5542305,1358222
-92369,-3099903,2674092,5691809,-7829600,-7681017,1399686,-5949739,-7191116,6093075,1492466
-101323,-3378929,2913540,6202231,-8533336,-8371311,1525570,-6489245,-7843020,6643845,1626710
-110277,-3657955,3152988,6712653,-9237072,-9061605,1651454,-7028751,-8494924,7194615,1760954
-119231,-3936981,3392436,7223075,-9940808,-9751899,1777338,-7568257,-9146828,7745385,1895198
-128185,-4216007,3631884,7733497,-10644544,-10442193,1903222,-8107763,-9798732,8296155,2029442
-137139,-4495033,3871332,8243919,-11348280,-11132487,2029106,-8647269,-10450636,8846925,2163686
-146093,-4774059,4110780,8754341,-12052016,-11822781,2154990,-9186775,-11102540,9397695,2297930
Matrix matrix_mul_matrix_bitextract [11x11]:
5299,5043,4952,6560,7984,4170,7233,4170,6172,5809,3872
4647,4629,6412,6446,7919,6646,3917,4019,4637,7476,6419
7537,3319,4904,2885,4730,6413,5237,6214,4887,5014,7654
6883,4572,6950,5814,4657,5396,7964,4191,5243,5340,3810
4120,4381,3866,3741,3957,3452,5032,5481,4641,5576,4792
5935,6018,3592,7642,3282,4836,5967,3867,5899,3623,6796
4412,4759,4820,8100,7259,4926,2616,7359,3353,6946,4416
5521,4102,3108,3580,3280,5853,5306,4831,4003,5175,3975
4624,9342,7989,5453,4558,5517,2631,3386,3078,3148,6606
5428,1051,3719,2452,3975,5131,7513,5412,7638,8128,6713
3181,4346,6064,5614,5755,6103,5229,6079,4479,6877,3628
Matrix matrix_add_const [11x11]:
20,23,29,49,147,237,207,161,163,37,39
41,43,45,47,49,51,53,55,57,59,61
63,65,67,69,71,73,75,77,79,81,83
85,87,89,91,93,95,97,99,101,103,105
107,109,111,113,115,117,119,121,123,125,127
129,131,133,135,137,139,141,143,145,147,149
151,153,155,157,159,161,163,165,167,169,171
173,175,177,179,181,183,185,187,189,191,193
195,197,199,201,203,205,207,209,211,213,215
217,219,221,223,225,227,229,231,233,235,237
239,241,243,245,247,249,251,253,255,257,259
Matrix matrix_mul_const [11x11]:
340,391,493,833,2499,4029,3519,2737,2771,629,663
697,731,765,799,833,867,901,935,969,1003,1037
1071,1105,1139,1173,1207,1241,1275,1309,1343,1377,1411
1445,1479,1513,1547,1581,1615,1649,1683,1717,1751,1785
1819,1853,1887,1921,1955,1989,2023,2057,2091,2125,2159
2193,2227,2261,2295,2329,2363,2397,2431,2465,2499,2533
2567,2601,2635,2669,2703,2737,2771,2805,2839,2873,2907
2941,2975,3009,3043,3077,3111,3145,3179,3213,3247,3281
3315,3349,3383,3417,3451,3485,3519,3553,3587,3621,3655
3689,3723,3757,3791,3825,3859,3893,3927,3961,3995,4029
4063,4097,4131,4165,4199,4233,4267,4301,4335,4369,4403
Matrix matrix_mul_vect [11x11]:
-6654555,-1038385,-1475679,-1912973,-2350267,-2787561,-3224855,-3662149,-4099443,-4536737,-4974031
697,731,765,799,833,867,901,935,969,1003,1037
1071,1105,1139,1173,1207,1241,1275,1309,1343,1377,1411
1445,1479,1513,1547,1581,1615,1649,1683,1717,1751,1785
1819,1853,1887,1921,1955,1989,2023,2057,2091,2125,2159
2193,2227,2261,2295,2329,2363,2397,2431,2465,2499,2533
2567,2601,2635,2669,2703,2737,2771,2805,2839,2873,2907
2941,2975,3009,3043,3077,3111,3145,3179,3213,3247,3281
3315,3349,3383,3417,3451,3485,3519,3553,3587,3621,3655
3689,3723,3757,3791,3825,3859,3893,3927,3961,3995,4029
4063,4097,4131,4165,4199,4233,4267,4301,4335,4369,4403
Matrix matrix_mul_matrix [11x11]:
47947,-233545,309343,593439,-675337,-662225,178951,-425057,-526345,567887,190119
-10155,-537937,475524,1005207,-1368024,-1342863,243842,-996093,-1205452,1036005,259862
-19109,-816963,714972,1515629,-2071760,-2033157,369726,-1535599,-1857356,1586775,394106
-28063,-1095989,954420,2026051,-2775496,-2723451,495610,-2075105,-2509260,2137545,528350
-37017,-1375015,1193868,2536473,-3479232,-3413745,621494,-2614611,-3161164,2688315,662594
-45971,-1654041,1433316,3046895,-4182968,-4104039,747378,-3154117,-3813068,3239085,796838
-54925,-1933067,1672764,3557317,-4886704,-4794333,873262,-3693623,-4464972,3789855,931082
-63879,-2212093,1912212,4067739,-5590440,-5484627,999146,-4233129,-5116876,4340625,1065326
-72833,-2491119,2151660,4578161,-6294176,-6174921,1125030,-4772635,-5768780,4891395,1199570
-81787,-2770145,2391108,5088583,-6997912,-6865215,1250914,-5312141,-6420684,5442165,1333814
-90741,-3049171,2630556,5599005,-7701648,-7555509,1376798,-5851647,-7072588,5992935,1468058
Matrix matrix_mul_matrix_bitextract [11x11]:
3718,4134,5531,4062,3567,7839,4186,6496,5109,5684,4832
4275,4157,3937,5891,7114,5648,4152,4095,4761,6424,4639
8119,3618,3281,4373,4333,3102,3319,4493,6181,6653,5465
4864,5048,4819,4064,5738,4804,6585,4750,5043,4155,7032
3686,5776,5016,5145,4298,7000,5884,3851,3780,6274,5429
5262,7268,7292,5947,6523,4173,6750,6542,3560,4367,5264
5166,3707,6289,5549,6889,7101,7736,5819,4495,5262,5473
5258,5368,4649,4587,5639,4808,4997,6901,5577,6133,5305
6851,5300,3664,6443,5483,5122,4620,5116,5813,3819,3018
3251,6924,6257,4946,7761,4856,4294,6772,3399,7592,4685
3752,4982,5498,4944,4480,3389,3439,5450,5219,6656,6113
State Bench: 0,0,34,2n4n
1,1,1,
1,1,1,
State Bench: 0,0,136,70n0
1,1,1,
1,1,1,
State Bench: 0,0,34,8nll
1,1,1,
1,1,1,
State Bench: 0,0,136,pm1o
1,1,1,
1,1,1,
State Bench: 0,0,34,l6lp
1,1,1,
1,1,1,
List sort 1: 0
List sort 2: 0
Matrix matrix_add_const [11x11]:
156,159,165,185,283,373,343,297,299,173,175
177,179,181,183,185,187,189,191,193,195,197
199,201,203,205,207,209,211,213,215,217,219
221,223,225,227,229,231,233,235,237,239,241
243,245,247,249,251,253,255,257,259,261,263
265,267,269,271,273,275,277,279,281,283,285
287,289,291,293,295,297,299,301,303,305,307
309,311,313,315,317,319,321,323,325,327,329
331,333,335,337,339,341,343,345,347,349,351
353,355,357,359,361,363,365,367,369,371,373
375,377,379,381,383,385,387,389,391,393,395
Matrix matrix_mul_const [11x11]:
23868,24327,25245,28305,43299,57069,52479,45441,45747,26469,26775
27081,27387,27693,27999,28305,28611,28917,29223,29529,29835,30141
30447,30753,31059,31365,31671,31977,32283,32589,32895,33201,33507
33813,34119,34425,34731,35037,35343,35649,35955,36261,36567,36873
37179,37485,37791,38097,38403,38709,39015,39321,39627,39933,40239
40545,40851,41157,41463,41769,42075,42381,42687,42993,43299,43605
43911,44217,44523,44829,45135,45441,45747,46053,46359,46665,46971
47277,47583,47889,48195,48501,48807,49113,49419,49725,50031,50337
50643,50949,51255,51561,51867,52173,52479,52785,53091,53397,53703
54009,54315,54621,54927,55233,55539,55845,56151,56457,56763,57069
57375,57681,57987,58293,58599,58905,59211,59517,59823,60129,60435
Matrix matrix_mul_vect [11x11]:
-9357827,-3741657,-4178951,-4616245,-5053539,-5490833,-5928127,-6365421,-6802715,-7240009,-7677303
27081,27387,27693,27999,28305,28611,28917,29223,29529,29835,30141
30447,30753,31059,31365,31671,31977,32283,32589,32895,33201,33507
33813,34119,34425,34731,35037,35343,35649,35955,36261,36567,36873
37179,37485,37791,38097,38403,38709,39015,39321,39627,39933,40239
40545,40851,41157,41463,41769,42075,42381,42687,42993,43299,43605
43911,44217,44523,44829,45135,45441,45747,46053,46359,46665,46971
47277,47583,47889,48195,48501,48807,49113,49419,49725,50031,50337
50643,50949,51255,51561,51867,52173,52479,52785,53091,53397,53703
54009,54315,54621,54927,55233,55539,55845,56151,56457,56763,57069
57375,57681,57987,58293,58599,58905,59211,59517,59823,60129,60435
Matrix matrix_mul_matrix [11x11]:
-7405,-1958433,1789567,3748775,-5025705,-4929497,957143,-3760185,-4556297,3972647,1019991
-65507,-2262825,1955748,4160543,-5718392,-5610135,1022034,-4331221,-5235404,4440765,1089734
-74461,-2541851,2195196,4670965,-6422128,-6300429,1147918,-4870727,-5887308,4991535,1223978
-83415,-2820877,2434644,5181387,-7125864,-6990723,1273802,-5410233,-6539212,5542305,1358222
-92369,-3099903,2674092,5691809,-7829600,-7681017,1399686,-5949739,-7191116,6093075,1492466
-101323,-3378929,2913540,6202231,-8533336,-8371311,1525570,-6489245,-7843020,6643845,1626710
-110277,-3657955,3152988,6712653,-9237072,-9061605,1651454,-7028751,-8494924,7194615,1760954
-119231,-3936981,3392436,7223075,-9940808,-9751899,1777338,-7568257,-9146828,7745385,1895198
-128185,-4216007,3631884,7733497,-10644544,-10442193,1903222,-8107763,-9798732,8296155,2029442
-137139,-4495033,3871332,8243919,-11348280,-11132487,2029106,-8647269,-10450636,8846925,2163686
-146093,-4774059,4110780,8754341,-12052016,-11822781,2154990,-9186775,-11102540,9397695,2297930
Matrix matrix_mul_matrix_bitextract [11x11]:
5299,5043,4952,6560,7984,4170,7233,4170,6172,5809,3872
4647,4629,6412,6446,7919,6646,3917,4019,4637,7476,6419
7537,3319,4904,2885,4730,6413,5237,6214,4887,5014,7654
6883,4572,6950,5814,4657,5396,7964,4191,5243,5340,3810
4120,4381,3866,3741,3957,3452,5032,5481,4641,5576,4792
5935,6018,3592,7642,3282,4836,5967,3867,5899,3623,6796
4412,4759,4820,8100,7259,4926,2616,7359,3353,6946,4416
5521,4102,3108,3580,3280,5853,5306,4831,4003,5175,3975
4624,9342,7989,5453,4558,5517,2631,3386,3078,3148,6606
5428,1051,3719,2452,3975,5131,7513,5412,7638,8128,6713
3181,4346,6064,5614,5755,6103,5229,6079,4479,6877,3628
State Bench: 0,0,136,n4nm
1,1,1,
1,1,1,
Matrix matrix_add_const [11x11]:
20,23,29,49,147,237,207,161,163,37,39
41,43,45,47,49,51,53,55,57,59,61
63,65,67,69,71,73,75,77,79,81,83
85,87,89,91,93,95,97,99,101,103,105
